…
format_merged_data
```

    ## # A tibble: 160 x 4
    ##       id arm    week     obs
    ##    <dbl> <chr>  <chr>  <dbl>
    ##  1     1 " con" week_1  0.2 
    ##  2     2 " con" week_1  1.13
    ##  3     3 " con" week_1  1.77
    ##  4     4 " con" week_1  1.04
    ##  5     5 " con" week_1  0.47
    ##  6     6 " con" week_1  2.37
    ##  7     7 " con" week_1  0.03
    ##  8     8 " con" week_1 -0.08
    ##  9     9 " con" week_1  0.08
    ## 10    10 " con" week_1  2.14
    ## # ... with 150 more rows
…
Create a city\_state variable and then summarize within cities to obtain the total number of homicides and the number of unsolved homicides:

``` r
summarised_homicides_data = homicides_data %>%
  mutate(city_state = paste(city, state, sep = ", ")) %>%
  mutate(disposition_index = ifelse(disposition == "Closed without arrest" | disposition == "Open/No arrest", 1, 0)) %>%  #create a index 
  group_by(city) %>%
  summarise(total_homicides = n(), unsolved_homicides = sum(disposition_index)) %>%  #summarize total homicides and unsolved homicides
  mutate(total_homicides = as.double(total_homicides))

summarised_homicides_data
```

    ## # A tibble: 50 x 3
    ##    city        total_homicides unsolved_homicides
    ##    <chr>                 <dbl>              <dbl>
    ##  1 Albuquerque             378                146
    ##  2 Atlanta                 973                373
    ##  3 Baltimore              2827               1825
    ##  4 Baton Rouge             424                196
    ##  5 Birmingham              800                347
    ##  6 Boston                  614                310
    ##  7 Buffalo                 521                319
    ##  8 Charlotte               687                206
    ##  9 Chicago                5535               4073
    ## 10 Cincinnati              694                309
    ## # ... with 40 more rows
…
}
```

``` r
multicity_test = prop_test(summarised_homicides_data)

multicity_test
```

    ## # A tibble: 50 x 4
    ##    city        estimate conf.low conf.high
    ##    <chr>          <dbl>    <dbl>     <dbl>
    ##  1 Albuquerque    0.386    0.337     0.438
    ##  2 Atlanta        0.383    0.353     0.415
    ##  3 Baltimore      0.646    0.628     0.663
    ##  4 Baton Rouge    0.462    0.414     0.511
    ##  5 Birmingham     0.434    0.399     0.469
    ##  6 Boston         0.505    0.465     0.545
    ##  7 Buffalo        0.612    0.569     0.654
    ##  8 Charlotte      0.300    0.266     0.336
    ##  9 Chicago        0.736    0.724     0.747
    ## 10 Cincinnati     0.445    0.408     0.483
    ## # ... with 40 more rows
…
